{
  "data": {
    "curPage": 1,
    "datas": [
      {
        "apkLink": "",
        "audit": 1,
        "author": "",
        "canEdit": false,
        "chapterId": 502,
        "chapterName": "自助",
        "collect": false,
        "courseId": 13,
        "desc": "",
        "descMd": "",
        "envelopePic": "",
        "fresh": true,
        "id": 15667,
        "link": "https://weilu.blog.csdn.net/article/details/108902282",
        "niceDate": "2小时前",
        "niceShareDate": "2小时前",
        "origin": "",
        "prefix": "",
        "projectLink": "",
        "publishTime": 1602287891000,
        "realSuperChapterId": 493,
        "selfVisible": 0,
        "shareDate": 1602287891000,
        "shareUser": "唯鹿",
        "superChapterId": 494,
        "superChapterName": "广场Tab",
        "tags": [],
        "title": "【译】学习Flutter中新的Navigator和Router系统",
        "type": 0,
        "userId": 2657,
        "visible": 1,
        "zan": 0
      },
      {
        "apkLink": "",
        "audit": 1,
        "author": "",
        "canEdit": false,
        "chapterId": 432,
        "chapterName": "UI渲染",
        "collect": false,
        "courseId": 13,
        "desc": "",
        "descMd": "",
        "envelopePic": "",
        "fresh": true,
        "id": 15571,
        "link": "https://www.cnblogs.com/muouren/p/11750156.html",
        "niceDate": "9小时前",
        "niceShareDate": "2020-10-04 17:19",
        "origin": "",
        "prefix": "",
        "projectLink": "",
        "publishTime": 1602261302000,
        "realSuperChapterId": 152,
        "selfVisible": 0,
        "shareDate": 1601803146000,
        "shareUser": "鸿洋",
        "superChapterId": 173,
        "superChapterName": "framework",
        "tags": [],
        "title": "Android8.0硬件加速的重绘流程",
        "type": 0,
        "userId": 2,
        "visible": 1,
        "zan": 0
      },
      {
        "apkLink": "",
        "audit": 1,
        "author": "",
        "canEdit": false,
        "chapterId": 232,
        "chapterName": "入门及知识点",
        "collect": false,
        "courseId": 13,
        "desc": "",
        "descMd": "",
        "envelopePic": "",
        "fresh": true,
        "id": 15647,
        "link": "https://www.jianshu.com/p/f03ac08e4080",
        "niceDate": "9小时前",
        "niceShareDate": "2天前",
        "origin": "",
        "prefix": "",
        "projectLink": "",
        "publishTime": 1602261289000,
        "realSuperChapterId": 231,
        "selfVisible": 0,
        "shareDate": 1602057614000,
        "shareUser": "鸿洋",
        "superChapterId": 232,
        "superChapterName": "Kotlin",
        "tags": [],
        "title": "两万六千字带你Kotlin入门",
        "type": 0,
        "userId": 2,
        "visible": 1,
        "zan": 0
      },
      {
        "apkLink": "",
        "audit": 1,
        "author": "",
        "canEdit": false,
        "chapterId": 160,
        "chapterName": "热修复",
        "collect": false,
        "courseId": 13,
        "desc": "",
        "descMd": "",
        "envelopePic": "",
        "fresh": true,
        "id": 15652,
        "link": "https://www.jianshu.com/p/f7b35c985884",
        "niceDate": "9小时前",
        "niceShareDate": "1天前",
        "origin": "",
        "prefix": "",
        "projectLink": "",
        "publishTime": 1602261270000,
        "realSuperChapterId": 53,
        "selfVisible": 0,
        "shareDate": 1602146554000,
        "shareUser": "深红骑士",
        "superChapterId": 76,
        "superChapterName": "热门专题",
        "tags": [],
        "title": "看完篇你还搞不懂Android热修复技术，我倒立吃X！",
        "type": 0,
        "userId": 29303,
        "visible": 1,
        "zan": 0
      },
      {
        "apkLink": "",
        "audit": 1,
        "author": "",
        "canEdit": false,
        "chapterId": 313,
        "chapterName": "字节码",
        "collect": false,
        "courseId": 13,
        "desc": "",
        "descMd": "",
        "envelopePic": "",
        "fresh": true,
        "id": 15662,
        "link": "https://segmentfault.com/a/1190000008606277",
        "niceDate": "9小时前",
        "niceShareDate": "22小时前",
        "origin": "",
        "prefix": "",
        "projectLink": "",
        "publishTime": 1602261205000,
        "realSuperChapterId": 244,
        "selfVisible": 0,
        "shareDate": 1602214411000,
        "shareUser": "wangzhengyi",
        "superChapterId": 245,
        "superChapterName": "Java深入",
        "tags": [],
        "title": "大话+图说：Java字节码指令&mdash;&mdash;只为让你懂",
        "type": 0,
        "userId": 38889,
        "visible": 1,
        "zan": 0
      },
      {
        "apkLink": "",
        "audit": 1,
        "author": "",
        "canEdit": false,
        "chapterId": 502,
        "chapterName": "自助",
        "collect": false,
        "courseId": 13,
        "desc": "",
        "descMd": "",
        "envelopePic": "",
        "fresh": true,
        "id": 15663,
        "link": "https://blog.csdn.net/weixin_43766753/article/details/108968666",
        "niceDate": "21小时前",
        "niceShareDate": "21小时前",
        "origin": "",
        "prefix": "",
        "projectLink": "",
        "publishTime": 1602217592000,
        "realSuperChapterId": 493,
        "selfVisible": 0,
        "shareDate": 1602217592000,
        "shareUser": "qwerhuan",
        "superChapterId": 494,
        "superChapterName": "广场Tab",
        "tags": [],
        "title": "关于Android Handler机制你需要知道的一切",
        "type": 0,
        "userId": 66812,
        "visible": 1,
        "zan": 0
      },
      {
        "apkLink": "",
        "audit": 1,
        "author": "",
        "canEdit": false,
        "chapterId": 502,
        "chapterName": "自助",
        "collect": false,
        "courseId": 13,
        "desc": "",
        "descMd": "",
        "envelopePic": "",
        "fresh": true,
        "id": 15660,
        "link": "https://juejin.im/post/6881414546859229192",
        "niceDate": "23小时前",
        "niceShareDate": "23小时前",
        "origin": "",
        "prefix": "",
        "projectLink": "",
        "publishTime": 1602212123000,
        "realSuperChapterId": 493,
        "selfVisible": 0,
        "shareDate": 1602212123000,
        "shareUser": "逮虾户",
        "superChapterId": 494,
        "superChapterName": "广场Tab",
        "tags": [],
        "title": "Android厂商推送Plugin化 ",
        "type": 0,
        "userId": 63284,
        "visible": 1,
        "zan": 0
      },
      {
        "apkLink": "",
        "audit": 1,
        "author": "",
        "canEdit": false,
        "chapterId": 502,
        "chapterName": "自助",
        "collect": false,
        "courseId": 13,
        "desc": "",
        "descMd": "",
        "envelopePic": "",
        "fresh": false,
        "id": 15651,
        "link": "https://juejin.im/post/6881116198889586701",
        "niceDate": "1天前",
        "niceShareDate": "1天前",
        "origin": "",
        "prefix": "",
        "projectLink": "",
        "publishTime": 1602144088000,
        "realSuperChapterId": 493,
        "selfVisible": 0,
        "shareDate": 1602144088000,
        "shareUser": "飞洋",
        "superChapterId": 494,
        "superChapterName": "广场Tab",
        "tags": [],
        "title": "&ldquo;终于懂了&rdquo; 系列：Android组件化，全面掌握！",
        "type": 0,
        "userId": 31360,
        "visible": 1,
        "zan": 0
      },
      {
        "apkLink": "",
        "audit": 1,
        "author": "",
        "canEdit": false,
        "chapterId": 502,
        "chapterName": "自助",
        "collect": false,
        "courseId": 13,
        "desc": "",
        "descMd": "",
        "envelopePic": "",
        "fresh": false,
        "id": 15648,
        "link": "https://juejin.im/post/6880815033522061319",
        "niceDate": "2天前",
        "niceShareDate": "2天前",
        "origin": "",
        "prefix": "",
        "projectLink": "",
        "publishTime": 1602065458000,
        "realSuperChapterId": 493,
        "selfVisible": 0,
        "shareDate": 1602065458000,
        "shareUser": "RicardoMJiang",
        "superChapterId": 494,
        "superChapterName": "广场Tab",
        "tags": [],
        "title": "Android程序员需要了解的并发编程知识",
        "type": 0,
        "userId": 13971,
        "visible": 1,
        "zan": 0
      },
      {
        "apkLink": "",
        "audit": 1,
        "author": "",
        "canEdit": false,
        "chapterId": 502,
        "chapterName": "自助",
        "collect": false,
        "courseId": 13,
        "desc": "",
        "descMd": "",
        "envelopePic": "",
        "fresh": false,
        "id": 15646,
        "link": "https://xuexiangjys.blog.csdn.net/article/details/108935622",
        "niceDate": "2天前",
        "niceShareDate": "2天前",
        "origin": "",
        "prefix": "",
        "projectLink": "",
        "publishTime": 1602055807000,
        "realSuperChapterId": 493,
        "selfVisible": 0,
        "shareDate": 1602055807000,
        "shareUser": "xuexiang",
        "superChapterId": 494,
        "superChapterName": "广场Tab",
        "tags": [],
        "title": "什么骚操作,用Android能写后台服务?",
        "type": 0,
        "userId": 42190,
        "visible": 1,
        "zan": 0
      },
      {
        "apkLink": "",
        "audit": 1,
        "author": "",
        "canEdit": false,
        "chapterId": 502,
        "chapterName": "自助",
        "collect": false,
        "courseId": 13,
        "desc": "",
        "descMd": "",
        "envelopePic": "",
        "fresh": false,
        "id": 15644,
        "link": "https://juejin.im/post/6880409898363027463",
        "niceDate": "2020-10-07 08:59",
        "niceShareDate": "2020-10-07 08:59",
        "origin": "",
        "prefix": "",
        "projectLink": "",
        "publishTime": 1602032362000,
        "realSuperChapterId": 493,
        "selfVisible": 0,
        "shareDate": 1602032362000,
        "shareUser": "xiaweizi",
        "superChapterId": 494,
        "superChapterName": "广场Tab",
        "tags": [],
        "title": "『Android 技能篇』优雅的转场动画之 Transition",
        "type": 0,
        "userId": 2148,
        "visible": 1,
        "zan": 0
      },
      {
        "apkLink": "",
        "audit": 1,
        "author": "",
        "canEdit": false,
        "chapterId": 502,
        "chapterName": "自助",
        "collect": false,
        "courseId": 13,
        "desc": "",
        "descMd": "",
        "envelopePic": "",
        "fresh": false,
        "id": 15643,
        "link": "https://juejin.im/post/6880024440143347719",
        "niceDate": "2020-10-06 23:08",
        "niceShareDate": "2020-10-06 23:08",
        "origin": "",
        "prefix": "",
        "projectLink": "",
        "publishTime": 1601996888000,
        "realSuperChapterId": 493,
        "selfVisible": 0,
        "shareDate": 1601996888000,
        "shareUser": "RicardoMJiang",
        "superChapterId": 494,
        "superChapterName": "广场Tab",
        "tags": [],
        "title": "Android程序员需要了解的https与中间人攻击",
        "type": 0,
        "userId": 13971,
        "visible": 1,
        "zan": 0
      },
      {
        "apkLink": "",
        "audit": 1,
        "author": "",
        "canEdit": false,
        "chapterId": 502,
        "chapterName": "自助",
        "collect": false,
        "courseId": 13,
        "desc": "",
        "descMd": "",
        "envelopePic": "",
        "fresh": false,
        "id": 15602,
        "link": "https://juejin.im/post/6878529721429131278",
        "niceDate": "2020-10-06 06:20",
        "niceShareDate": "2020-10-06 06:20",
        "origin": "",
        "prefix": "",
        "projectLink": "",
        "publishTime": 1601936447000,
        "realSuperChapterId": 493,
        "selfVisible": 0,
        "shareDate": 1601936447000,
        "shareUser": "xiaweizi",
        "superChapterId": 494,
        "superChapterName": "广场Tab",
        "tags": [],
        "title": "『Flutter-插件篇』实现一款超酷的动态天气背景插件 ",
        "type": 0,
        "userId": 2148,
        "visible": 1,
        "zan": 0
      },
      {
        "apkLink": "",
        "audit": 1,
        "author": "",
        "canEdit": false,
        "chapterId": 502,
        "chapterName": "自助",
        "collect": false,
        "courseId": 13,
        "desc": "",
        "descMd": "",
        "envelopePic": "",
        "fresh": false,
        "id": 15595,
        "link": "https://juejin.im/post/6880079138519154696",
        "niceDate": "2020-10-05 18:30",
        "niceShareDate": "2020-10-05 18:30",
        "origin": "",
        "prefix": "",
        "projectLink": "",
        "publishTime": 1601893847000,
        "realSuperChapterId": 493,
        "selfVisible": 0,
        "shareDate": 1601893847000,
        "shareUser": "xiaweizi",
        "superChapterId": 494,
        "superChapterName": "广场Tab",
        "tags": [],
        "title": "『Flutter-技能篇』实现一套完整的应用内更新",
        "type": 0,
        "userId": 2148,
        "visible": 1,
        "zan": 0
      },
      {
        "apkLink": "",
        "audit": 1,
        "author": "",
        "canEdit": false,
        "chapterId": 502,
        "chapterName": "自助",
        "collect": false,
        "courseId": 13,
        "desc": "",
        "descMd": "",
        "envelopePic": "",
        "fresh": false,
        "id": 15585,
        "link": "https://xuexiangjys.blog.csdn.net/article/details/108923027",
        "niceDate": "2020-10-05 16:54",
        "niceShareDate": "2020-10-05 16:54",
        "origin": "",
        "prefix": "",
        "projectLink": "",
        "publishTime": 1601888053000,
        "realSuperChapterId": 493,
        "selfVisible": 0,
        "shareDate": 1601888053000,
        "shareUser": "xuexiang",
        "superChapterId": 494,
        "superChapterName": "广场Tab",
        "tags": [],
        "title": "Google官方Fragment页面框架Navigation和XPage开源框架的使用对比",
        "type": 0,
        "userId": 42190,
        "visible": 1,
        "zan": 0
      },
      {
        "apkLink": "",
        "audit": 1,
        "author": "",
        "canEdit": false,
        "chapterId": 502,
        "chapterName": "自助",
        "collect": false,
        "courseId": 13,
        "desc": "",
        "descMd": "",
        "envelopePic": "",
        "fresh": false,
        "id": 15557,
        "link": "https://juejin.im/post/6879376888360501262",
        "niceDate": "2020-10-03 21:27",
        "niceShareDate": "2020-10-03 21:27",
        "origin": "",
        "prefix": "",
        "projectLink": "",
        "publishTime": 1601731652000,
        "realSuperChapterId": 493,
        "selfVisible": 0,
        "shareDate": 1601731652000,
        "shareUser": "ZYLAB",
        "superChapterId": 494,
        "superChapterName": "广场Tab",
        "tags": [],
        "title": "面试官带你学安卓 - Handler 这些知识点你都知道吗",
        "type": 0,
        "userId": 10577,
        "visible": 1,
        "zan": 0
      },
      {
        "apkLink": "",
        "audit": 1,
        "author": "",
        "canEdit": false,
        "chapterId": 502,
        "chapterName": "自助",
        "collect": false,
        "courseId": 13,
        "desc": "",
        "descMd": "",
        "envelopePic": "",
        "fresh": false,
        "id": 15532,
        "link": "https://juejin.im/post/6879326343667023879",
        "niceDate": "2020-10-03 18:21",
        "niceShareDate": "2020-10-03 18:21",
        "origin": "",
        "prefix": "",
        "projectLink": "",
        "publishTime": 1601720474000,
        "realSuperChapterId": 493,
        "selfVisible": 0,
        "shareDate": 1601720474000,
        "shareUser": "RicardoMJiang",
        "superChapterId": 494,
        "superChapterName": "广场Tab",
        "tags": [],
        "title": "Retrofit中的设计模式",
        "type": 0,
        "userId": 13971,
        "visible": 1,
        "zan": 0
      },
      {
        "apkLink": "",
        "audit": 1,
        "author": "xiaoyang",
        "canEdit": false,
        "chapterId": 440,
        "chapterName": "官方",
        "collect": false,
        "courseId": 13,
        "desc": "<p>上次我们问了：</p>\r\n<p><a href=\"https://wanandroid.com/wenda/show/14941\">每日一问 | Java 泛型与接口碰撞出的火花！</a></p>\r\n<p>不少同学认识到了，<strong>「桥接方法」解决了实现类与接口参数类型不匹配的问题。</strong></p>\r\n<p>那么我们再来看一个例子：</p>\r\n<pre><code>interface TestInter&lt;T&gt; {\r\n\r\n    T getName(String name);\r\n\r\n}\r\n</code></pre><p>实现类：</p>\r\n<pre><code>class TestImpl implements TestInter&lt;String&gt; {\r\n    @Override\r\n    public String getName(String name) {\r\n        return null;\r\n    }\r\n}\r\n</code></pre><p>这次猜我的关注点在哪？</p>\r\n<p>我们反编译一下TestImpl：</p>\r\n<pre><code>public java.lang.String getName(java.lang.String);\r\n  descriptor: (Ljava/lang/String;)Ljava/lang/String;\r\n  flags: ACC_PUBLIC\r\n\r\n\r\npublic java.lang.Object getName(java.lang.String);\r\n  descriptor: (Ljava/lang/String;)Ljava/lang/Object;\r\n  flags: ACC_PUBLIC, ACC_BRIDGE, ACC_SYNTHETIC\r\n</code></pre><p>又看到了ACC_BRIDGE，ACC_SYNTHETIC，已知知识。</p>\r\n<p>可以看到生成的两个方法，我们转成Java的展现形式：</p>\r\n<ol>\r\n<li>String getName(String str)</li>\r\n<li>Object getName(String str);</li>\r\n</ol>\r\n<p>有没有觉得奇怪？</p>\r\n<p>我贴张图，你就能看明白了：</p>\r\n<p><img src=\"https://wanandroid.com/blogimgs/9d06cc96-4343-4e9c-83f0-a448a6e3bbc1.png\" alt></p>\r\n<p>这两个方法的方法名，参数均相同，只有返回值不同，在我们Java平时编写中是不允许的。</p>\r\n<p>问题来了：</p>\r\n<ol>\r\n<li>为何在这个场景下，允许「一个类中有方法名，参数均相同，只有返回值不同」两个方法？</li>\r\n<li>既然class文件有两个getName，那么我们调用getName时，是如何确定调用的哪个方法呢？</li>\r\n</ol>",
        "descMd": "",
        "envelopePic": "",
        "fresh": false,
        "id": 14990,
        "link": "https://wanandroid.com/wenda/show/14990",
        "niceDate": "2020-10-03 11:43",
        "niceShareDate": "2020-08-26 21:08",
        "origin": "",
        "prefix": "",
        "projectLink": "",
        "publishTime": 1601696612000,
        "realSuperChapterId": 439,
        "selfVisible": 0,
        "shareDate": 1598447321000,
        "shareUser": "",
        "superChapterId": 440,
        "superChapterName": "问答",
        "tags": [
          {
            "name": "本站发布",
            "url": "/article/list/0?cid=440"
          },
          {
            "name": "问答",
            "url": "/wenda"
          }
        ],
        "title": "每日一问 |  当JVM遇到桥接方法，暴露出了什么？",
        "type": 0,
        "userId": 2,
        "visible": 1,
        "zan": 8
      },
      {
        "apkLink": "",
        "audit": 1,
        "author": "",
        "canEdit": false,
        "chapterId": 502,
        "chapterName": "自助",
        "collect": false,
        "courseId": 13,
        "desc": "",
        "descMd": "",
        "envelopePic": "",
        "fresh": false,
        "id": 15512,
        "link": "https://blog.csdn.net/weixin_43766753/article/details/108906064",
        "niceDate": "2020-10-02 23:25",
        "niceShareDate": "2020-10-02 23:25",
        "origin": "",
        "prefix": "",
        "projectLink": "",
        "publishTime": 1601652311000,
        "realSuperChapterId": 493,
        "selfVisible": 0,
        "shareDate": 1601652311000,
        "shareUser": "qwerhuan",
        "superChapterId": 494,
        "superChapterName": "广场Tab",
        "tags": [],
        "title": "关于java受检异常checkedException的思考",
        "type": 0,
        "userId": 66812,
        "visible": 1,
        "zan": 0
      },
      {
        "apkLink": "",
        "audit": 1,
        "author": "",
        "canEdit": false,
        "chapterId": 502,
        "chapterName": "自助",
        "collect": false,
        "courseId": 13,
        "desc": "",
        "descMd": "",
        "envelopePic": "",
        "fresh": false,
        "id": 15483,
        "link": "https://mp.weixin.qq.com/s/qov5i7QHzpnZhyw8LgXuAw",
        "niceDate": "2020-09-30 09:14",
        "niceShareDate": "2020-09-30 09:14",
        "origin": "",
        "prefix": "",
        "projectLink": "",
        "publishTime": 1601428458000,
        "realSuperChapterId": 493,
        "selfVisible": 0,
        "shareDate": 1601428458000,
        "shareUser": "黎明鸟飞去",
        "superChapterId": 494,
        "superChapterName": "广场Tab",
        "tags": [],
        "title": "Google CodeLabs Env Setup - 谷歌代码实验室搭建指南",
        "type": 0,
        "userId": 355,
        "visible": 1,
        "zan": 0
      }
    ],
    "offset": 0,
    "over": false,
    "pageCount": 466,
    "size": 20,
    "total": 9308
  },
  "errorCode": 0,
  "errorMsg": ""
}

